{
  "id": "97ac0a60-9389-87d7-2a6e-bf467e4d3d96",
  "name": "Cstore Staging",
  "values": [
    {
      "key": "base_url",
      "value": "http://beta.cstoremaster.com",
      "type": "text",
      "enabled": true
    }
  ],
  "timestamp": 1482251297512,
  "_postman_variable_scope": "environment",
  "_postman_exported_at": "2016-12-20T16:28:54.864Z",
  "_postman_exported_using": "Postman/4.9.2"
}